No.,"部店
コード","担当者
（JIP）",補助者,コード,顧客名,〒,住所,番地,建物等,ＴＥＬ,,265確定
1,302,谷川,,18126,岡本　龍蔵,330-0834,埼玉県さいたま市大宮区天沼町,２丁目２７７番地,プレシス大宮クレール１０１号,048-645-4404,,
,302,谷川,,18608,岡本　美惠子,330-0834,埼玉県さいたま市大宮区天沼町,２丁目２７７番地,プレシス大宮クレール１０１号,048-645-4404,,
2,302,谷川,,25156,松下　正義,115-0055,東京都北区赤羽西,４－３９－３,,03-3907-5523,,
,302,谷川,,19349,松下　京子,115-0055,東京都北区赤羽西,４－３９－３,,03-3907-5523,,
3,302,谷川,,11708,初見　良一,270-1154,千葉県我孫子市白山３丁目,１番３１号,,04-7185-0472,,
,302,谷川,,73958,初見　美和子,270-1154,千葉県我孫子市白山,３－１－３１,,04-7185-0472,,
4,302,谷川,,17553,吉田　佐由美,248-0016,神奈川県鎌倉市長谷,一丁目１５番２４号,,0467-66-2108,,
5,302,谷川,,19643,水之江　郁子,180-0004,東京都武蔵野市吉祥寺本町,４－２－１１,,0422-21-3237,,
6,302,谷川,,8500,堀切　惠子,125-0062,東京都葛飾区青戸,１－９－１６,,03-3694-7751,,
7,302,谷川,,17893,岩倉　英子,331-0805,埼玉県さいたま市北区盆栽町,４１０番地,,048-665-4580,,
8,302,谷川,,19459,宮崎　道子,176-0024,東京都練馬区中村,１－１０－１７,,03-3990-4706,,
9,302,谷川,,9181,千葉　洋子,192-0363,東京都八王子市別所,２－３５－８,,042-682-2014,,
10,302,谷川,,2233,渡邊　ひろみ,262-0018,千葉県千葉市花見川区畑町,２１４４－１,,043-271-3707,,
11,302,谷川,,1456707,小山　初美,277-0005,千葉県柏市柏,１０３８－１６,,04-7149-8342,,
12,302,谷川,,1557369,山川　良子,277-0831,千葉県柏市根戸,４１０－２０,,04-7133-1621,,
13,302,谷川,,2202399,吉田　久美子,115-0054,東京都北区桐ケ丘,２丁目１１番３６－３０１号,近藤ハイツ,03-3900-0093,,
14,302,谷川,,11749,川田　節子,113-0021,東京都文京区本駒込,５－７１－８,,03-3827-6649,,
15,302,谷川,,11312,向山　規矩子,153-0053,東京都目黒区五本木,１丁目１６番１６号,,03-3791-3491,,
16,302,濵﨑,谷川,12874,大歳　恒彦,153-0041,東京都目黒区駒場,２－７－７,,03-3465-3798,,
,302,濵﨑,谷川,10368,大歳　宇佐美,153-0041,東京都目黒区駒場,２－７－７,,03-3465-3798,,
17,302,保科,谷川,6670,齋藤　範雄,121-0064,東京都足立区保木間,１丁目１３番２７－３０６号,,03-3884-0900,,
18,302,保科,谷川,16357,田邊　和子,171-0022,東京都豊島区南池袋,１－１１－１９－１３０６,,03-6754-9947,,
19,302,濵﨑,,8355,松下　正也,338-0001,埼玉県さいたま市中央区上落合,２丁目２番１１－９０６号,,048-855-5789,,
,302,濵﨑,,3230,松下　和子,338-0001,埼玉県さいたま市中央区,上落合２－２－１１－９０６,,048-855-5789,,
20,302,濵﨑,,2200388,萩原　仁,193-0814,東京都八王子市泉町,１９１１番地１７３,,042-699-0843,,
,302,濵﨑,,26754,萩原　美恵子,193-0814,東京都八王子市泉町,１９１１番地１７３,,042-699-0843,,
21,302,濵﨑,,1436981,林　喬,301-0043,茨城県龍ケ崎市松葉１丁目,１６－１１,,0297-66-1657,,
,302,濵﨑,,1456576,林　幸子,301-0043,茨城県龍ケ崎市松葉,１－１６－１１,,0297-66-1657,,
22,302,濵﨑,,18387,池羽　好明,308-0846,茨城県筑西市布川,１３０５－８,,0296-28-4733,,
,302,濵﨑,,19260,池羽　みち子,308-0846,茨城県筑西市布川,１３０５－８,,0296-28-4733,,
23,302,濵﨑,,2103940,藤田　允孝,390-0822,長野県松本市神田,１－１８－１６,,0263-28-3690,,
,302,濵﨑,,25696,藤田　文子,390-0822,長野県松本市神田,１－１８－１６,,0263-28-3690,,
24,302,濵﨑,,16374,栁澤　博,362-0063,埼玉県上尾市小泉,８丁目１４番地７,,048-781-8700,,
,302,濵﨑,,16644,栁澤　髙夫,362-0063,埼玉県上尾市小泉,８丁目１４番地７,,048-781-8700,,
25,302,濵﨑,,2501333,岩木　三郎,177-0034,東京都練馬区富士見台,４－２３－９,,03-3926-1679,,
,302,濵﨑,,19461,岩木　明子,177-0034,東京都練馬区富士見台,４－２３－９,,03-3926-1679,,
26,302,濵﨑,,18210,藤原　洋子,252-0325,神奈川県相模原市南区新磯野,４－８－２－３０７,,046-253-3077,,
27,302,濵﨑,,1796,村井　浩市,277-0027,千葉県柏市あかね町,１８－１４,,04-7164-8301,,
28,302,濵﨑,,2105730,豊川　とよ子,116-0012,東京都荒川区東尾久,２丁目２３番１７号,,03-3819-1591,,
29,302,濵﨑,,1556796,鈴木　良一,277-0871,千葉県柏市若柴,１－３６５,,04-7169-4400,,
30,309,佐々木(義),濵﨑,1420699,中村　陽一,247-0074,神奈川県鎌倉市城廻,７５２－２,,0467-45-4538,,
,309,佐々木(義),濵﨑,1454085,中村　佳代子,247-0074,神奈川県鎌倉市城廻,７５２－２,,0467-45-4538,,
31,309,佐々木(義),濵﨑,11563,澁谷　幹子,114-0014,東京都北区田端,１－２７－１－３０９,,03-3828-8016,,
32,309,佐々木(義),濵﨑,3457,小川　由美子,125-0051,東京都葛飾区新宿,３－１６－６,,03-3607-6390,,
33,302,保科,,17725,上銘　勝史,120-0003,東京都足立区東和,１－１７－２４－６０１,,03-3605-9781,,
,302,保科,,25627,上銘　佐和子,120-0003,東京都足立区東和,１－１７－２４－６０１,,03-3605-9781,,
34,302,保科,,19032,武田　公一,245-0005,神奈川県横浜市泉区白百合,１－２４－１１,,045-811-3672,,
,302,保科,,17966,武田　澄子,245-0005,神奈川県横浜市泉区白百合,１－２４－１１,,045-811-3672,,
35,302,保科,,24650,中澤　守正,222-0023,神奈川県横浜市港北区仲手原,１－７－２５,,045-433-3820,,
36,302,保科,,6243,佐多　直英,186-0013,東京都国立市青柳,２丁目１６番地の１０,,042-524-4072,,
37,302,保科,,19500,平田　淑子,156-0045,東京都世田谷区桜上水,５丁目１３番２号,,03-3302-0442,,
38,302,保科,,26951,澤口　進,185-0024,東京都国分寺市泉町,三丁目２６番３号,,042-349-6252,,
39,302,保科,,5006841,與儀　玲子,102-0074,東京都千代田区九段南,２－６－１３－６０５,,03-3511-0361,,
40,302,保科,,11887,津村　節子,140-0014,東京都品川区大井,５－２７－１－５０５,,03-5742-6133,,
41,302,仲間,保科,5011604,菅田　順子,152-0004,東京都目黒区鷹番,２丁目６番１２号,,03-3716-1717,,
43,309,佐々木(義),,19217,竹ノ内　敏一,389-1102,長野県長野市豊野町大倉,１９９６,,026-257-3513,,
,309,佐々木(義),,1955862,竹ノ内　春子,650-0004,神戸市中央区中山手通５丁目,２－１０－７０３,,078-585-7202,,
44,309,佐々木(義),,12202,山本　邦明,144-0051,東京都大田区西蒲田,１－４－８,,03-3752-1592,,
45,309,佐々木(義),,25197,田中　康子,278-0037,千葉県野田市野田,４０９,,04-7122-8220,,
46,302,佐々木(脩),,1420502,石井　堅一,251-0035,神奈川県藤沢市片瀬海岸２丁目,１３－１２,,0466-28-4528,,
,302,佐々木(脩),,1469510,石井　静代,251-0035,神奈川県藤沢市片瀬海岸２丁目,１３－１２,,0466-28-4528,,
47,302,佐々木(脩),,1456856,大野　千鶴,136-0076,東京都江東区南砂,２－４－２４－９０２,,03-3644-2637,,
48,302,佐々木(脩),,18977,高栁　宏幸,242-0024,神奈川県大和市福田,１６４２－２５,,046-268-3839,,
49,302,佐々木(脩),,1437064,堤　徳文,146-0085,東京都大田区久が原４丁目,３１－６,,03-3755-9510,,
50,302,佐々木(脩),,863,倉川　哲,253-0111,神奈川県高座郡寒川町一之宮,４－２０－６,,0467-74-4711,,
52,302,小倉,,5007673,藤井　明子,152-0001,東京都目黒区中央町,１丁目１４番１１号,,03-3712-5707,,
53,805,谷川,,15987,本間　美枝子,004-0022,北海道札幌市厚別区厚別南,２－６－２８－１２０１,,011-802-3373,,
54,805,谷川,,16737,髙橋　富美,064-0917,北海道札幌市中央区南１７,西１４ー２ー２３,,011-562-3052,,
55,302,谷川,,14919,石上　渥子,004-0011,北海道札幌市厚別区もみじ台東,７－２－９,,011-897-7309,,
56,805,佐々木(脩),,19467,相澤　和幸,004-0880,北海道札幌市清田区平岡１０,１－２４－２４,,011-892-5848,,
57,320,小川(貴),佐々木（脩）,16402,神﨑　容子,004-0001,北海道札幌市厚別区厚別東一条,１－１－２２,,011-898-3048,,
58,302,谷川,,17877,東海林　由紀,981-3133,宮城県仙台市泉区泉中央,１丁目１８番地の２１,プラウド泉中央１丁目２０５,022-372-0600,,
59,302,谷川,,17452,佐藤　一比古,023-1132,岩手県奥州市江刺区稲瀬,字山下２２３,,0197-35-4760,,
60,30,谷川,,12816,森　勝史,621-0851,京都府亀岡市荒塚町鍛治ケ嶋,１－２,ウィステアリアカースル２０２,0771-24-0657,,
,30,谷川,,26166,森　ゆかり,621-0851,京都府亀岡市荒塚町鍛治ケ嶋,１－２,ウィステアリアカースル２０２,0771-24-0657,,
61,30,谷川,,12045,坂田　久子,606-0045,京都府京都市左京区上高野深田町,２８－１,,075-204-7804,,
62,30,谷川,,12758,石橋　茂美,520-0817,滋賀県大津市昭和町,１１－１２,,077-526-1927,,
63,30,谷川,,93193,佐々木　信幸,610-0121,京都府城陽市寺田今堀,８８番地の２１,,0774-55-1738,,
64,30,谷川,,91205,木元　華代子,610-0102,京都府城陽市久世,下大谷２１－２２,,0774-55-2458,,
65,400,谷川,,18485,山田　哲男,567-0831,大阪府茨木市鮎川,３丁目１５－１３,,072-636-6640,,
,400,谷川,,24934,山田　秋美,567-0831,大阪府茨木市鮎川,３丁目１５－１３,,072-636-6640,,
66,400,谷川,,1966337,吉本　重信,665-0033,兵庫県宝塚市伊孑志,３丁目１６－４４,,0797-71-3540,,
,400,谷川,,1966338,吉本　嬉子,665-0033,兵庫県宝塚市伊孑志,３丁目１６－４４,,0797-71-3540,,
67,400,谷川,,9268,森脇　正裕,572-0081,大阪府寝屋川市東香里園町,２２－７,,072-832-6689,,
68,400,谷川,,10909,高松　研一郎,675-0011,兵庫県加古川市野口町北野,５１７－２,,079-439-7462,,
69,400,谷川,,455,古田　正昭,591-8012,大阪府堺市北区中村町,１１７５,,072-252-7553,,
70,400,谷川,,1486946,大瀧　浩美,552-0004,大阪府大阪市港区夕凪,１丁目４－４,マリンブルーマンション　Ｖ　９０１,080-4224-2216,,
71,850,谷川,,9680,伊藤　治己,500-8245,岐阜県岐阜市上川手,４２２番地,,058-245-1503,,
72,400,谷川,,6674,濱田　浩,630-8101,奈良県奈良市青山,７丁目１７７,,0742-23-8156,,
73,450,谷川,,17370,若林　清臣,802-0833,福岡県北九州市小倉南区上石田,２－１４－１,,093-962-5478,,
74,450,谷川,,14287,千歳　博,874-0918,大分県別府市汐見町,７番１９号,,0977-23-4513,,
75,450,佐々木(義),,18956,松本　千賀子,810-0044,福岡県福岡市中央区六本松,３－１－５３－８０５,,092-741-7582,,
76,30,山田,,12452,可知　利彦,607-8124,京都府京都市山科区大塚檀ノ浦,２９－１２,,075-591-0262,,
,30,山田,,11565,可知　弘子,607-8124,京都府京都市山科区大塚檀ノ浦,２９－１２,,075-591-0262,,
77,30,山田,,12038,柿谷　致康,611-0011,京都府宇治市五ケ庄新開,４,,0774-33-3566,,
,30,山田,,16638,柿谷　スエノ,611-0011,京都府宇治市五ケ庄新開,４番地,,0774-33-3566,,
78,30,山田,,17999,上野　正勝,610-0101,京都府城陽市平川指月,７,,0774-53-3528,,
,30,山田,,10614,上野　さや子,610-0101,京都府城陽市平川,指月７,,0774-53-3528,,
79,30,山田,,20541,大八木　祐彦,615-0922,京都府京都市右京区梅津前田町,５２,,075-881-8467,,
,30,山田,,407,大八木　律子,615-0922,京都府京都市右京区梅津前田町,５２,,075-881-8467,,
80,30,山田,,8364,岩田　朝子,657-0062,兵庫県神戸市灘区寺口町,１２－２,,078-855-8242,,
81,30,山田,,82077,古角　智子,600-8111,京都府京都市下京区木屋町通五条下る都市町,１５０,,075-351-2495,,
82,30,山田,,17711,二谷　美智子,603-8206,京都府京都市北区紫竹西南町,１２－１,,075-491-6147,,
83,30,山田,,13326,柿谷　出,621-0243,京都府亀岡市宮前町宮川海道ノ上,３,,0771-26-2123,,
84,30,山田,,80394,大西　康子,611-0002,京都府宇治市木幡,御蔵山３９－９４８,,0774-32-3775,,
85,30,山田,,17134,久野　貞子,606-8344,京都府京都市左京区岡崎円勝寺町,９１,グランドヒルズ岡崎神宮道３０４,075-752-9609,,
86,30,山田,,23961,長坂　文代,604-0911,京都府京都市中京区河原町二条上る清水町,３４１－１１,グランク－ル河原町二条２０６号,075-213-1104,,
87,30,山田,,24917,猪熊　悦子,615-8262,京都府京都市西京区山田四ノ坪町,７番地の４,,075-391-5264,,
88,30,山田,,16808,谷川　千里,612-8071,京都府京都市伏見区鍛冶屋町,９８５番地,,075-601-0212,,
89,30,山田,,5009272,中ノ坊　順子,574-0073,大阪府大東市緑が丘,２－８－１５,,072-870-3953,,
90,30,山田,,9051,阿部　則子,520-0112,滋賀県大津市日吉台,四丁目７番９号,,077-535-8946,,
91,30,小川(真),,20597,小野　真太郎,612-8082,京都府京都市伏見区,両替町１１－２５６,,075-601-4462,,
,30,小川(真),,20596,小野　文子,612-8082,京都市　伏見区　両替町　１１丁目,２５６,,075-601-4462,,
92,30,小川(真),,25814,大嶋　公生,605-0931,京都府京都市東山区正面通大和大路西入茶屋町,５１２番地１,,075-541-0487,,
,30,小川(真),,25815,大嶋　圭子,605-0931,京都府京都市東山区正面通大和大路西入茶屋町,５１２－１,,075-541-0487,,
93,30,小川(真),,8369,中村　宏,610-0101,京都府城陽市平川,大将軍２３,,0774-53-1580,,
,30,小川(真),,92416,中村　教子,610-0101,京都府城陽市平川,大将軍２３－１４,,0774-53-1580,,
94,30,小川(真),,8168,山田　耕一,604-8235,京都府京都市中京区錦堀川町,６３１,,075-221-6517,,
,30,小川(真),,10074,山田　道子,604-8235,京都府京都市中京区堀川通錦小路下る錦堀川町,６３１,,075-221-6517,,
95,30,小川(真),,11551,林　隆憲,603-8483,京都府京都市北区大北山ケ谷町,１－７,,075-467-4670,,
,30,小川(真),,6403,林　静子,603-8483,京都府京都市北区大北山蓮ケ谷町,１－７,,075-467-4670,,
96,30,小川(真),,19997,今井　満男,606-8395,京都府京都市左京区丸太町川端東入東丸太町,１４－２３,,075-751-8280,,
,30,小川(真),,38692,今井　眞佐子,606-8395,京都府京都市左京区東丸太町,１４－２３,,075-751-8280,,
97,30,小川(真),,14113,中澤　清次,616-8434,京都府京都市右京区嵯峨鳥居本仏餉田町,１１－１,,075-872-7322,,
,30,小川(真),,13854,中澤　圭子,616-8434,京都府京都市右京区嵯峨鳥居本仏餉田町,１１－１,,075-872-7322,,
98,30,小川(真),,12592,米原　令子,610-1123,京都府京都市西京区大原野上里南ノ町,５５２－１０,,075-331-5162,,
99,30,小川(真),,16429,高橋　世雄子,569-1144,大阪府高槻市大畑町,２０－６－３０２,,072-692-8343,,
100,30,小川(真),,12082,香川　恵造,616-8246,京都府京都市右京区鳴滝川西町,１５－３６,,075-464-7256,,
101,30,小川(真),,19229,長宗我部　友子,520-0016,滋賀県大津市比叡平,三丁目４２－１４,,077-529-0376,,
102,30,小川(真),,3455,山中　眞由美,520-2276,滋賀県大津市里,五丁目７－３,,077-546-0479,,
103,30,小川(真),,81841,岡田　美知子,603-8355,京都府京都市北区平野上柳町,２６番地の３０,,075-462-2208,,
104,30,小川(真),,25678,嘉門　知子,610-1145,京都府京都市西京区大原野西竹の里町,２丁目３　２１３,,075-332-7016,,
105,30,小川(真),,26018,小西　佳代子,520-0246,滋賀県大津市仰木の里６丁目,１５－１１,,077-571-2153,,
106,30,大神,,11498,田原　順三,602-8375,京都府京都市上京区一条通御前通西入大上之町,４９番地,リソシエラグジェ北野１０４,075-463-0879,,
,30,大神,,13692,田原　久美子,602-8375,京都府京都市上京区一条通御前通西入大上之町,４９番地,リソシエラグジェ北野１０４,075-463-0879,,
107,30,大神,,81743,吉田　公茂,616-8103,京都府京都市右京区太秦上刑部町,１８－１２,,075-881-1230,,
,30,大神,,11478,吉田　松子,616-8103,京都府京都市右京区太秦上刑部町,１８－１２,,075-881-1230,,
108,30,大神,,25870,寺崎　雅之,614-8012,京都府八幡市八幡吉野,４４－４,,075-981-1364,,
,30,大神,,12484,寺﨑　光子,614-8012,京都府八幡市八幡吉野,４４－４,,075-981-1364,,
109,30,大神,,22873,村手　利廣,607-8327,京都府京都市山科区川田山田,１５―４３,,075-591-8596,,
,30,大神,,10806,村手　文子,607-8327,京都府京都市山科区川田山田,１５番地の４３,,075-591-8596,,
110,30,大神,,26902,石田　慶子,631-0006,奈良県奈良市西登美ヶ丘,３丁目１０－２,,090-1221-6651,,
111,30,大神,,93747,井上　さつき,611-0025,京都府宇治市神明,石塚７３,,0774-21-3564,,
112,30,大神,,80771,太田　彰夫,610-1102,京都府京都市西京区,御陵大枝山町１丁目６ー７,,075-331-6155,,
113,30,大神,,8815,森岡　洋一,601-8464,京都府京都市南区唐橋高田町,３１－３,,075-671-5574,,
114,30,大神,,2100,吉村　敬子,606-8273,京都府京都市左京区北白川山ノ元町,７３,,075-712-0482,,
115,30,大神,,1924569,川上　俊親,520-0863,滋賀県大津市千町,２丁目１６－８,,077-572-5189,,
116,30,横江,,11470,中井　伯有,603-8061,京都府京都市北区上賀茂荒草町,４５－１,,075-722-0678,,
,30,横江,,8878,中井　光世,603-8061,京都府京都市北区上賀茂荒草町,４５－１,,075-722-0678,,
117,30,横江,,13820,谷畑　博司,603-8331,京都市北区大将軍西町,33,,075-462-0205,,
118,30,谷川,横江,20735,奥西　伊佐男,610-0311,京都府京田辺市,草内南垣内１５番地,,0774-62-3905,,
,30,谷川,横江,20736,奥西　かほる,610-0311,京都府京田辺市,草内南垣内１５,,0774-62-3905,,
119,30,清水,,5720,杉原　正芳,601-1123,京都府京都市左京区静市市原町,６５６,,075-781-4282,,
120,340,小川(真),,1437079,永井　琢磨,123-0864,東京都足立区鹿浜６丁目,９－５,,03-3896-1015,,
121,340,小川(真),,18762,村野　俊,156-0052,東京都世田谷区経堂,５－２４－１１－２０３,,090-7041-3702,,
122,340,小川(真),,74487,関口　洋子,165-0024,東京都中野区松が丘,２－２８－１－１０２,,03-3385-9344,,
123,302,谷川,小川（真）,7281,山形　むつみ,180-0003,東京都武蔵野市吉祥寺南町,２－２９－１０－４０１,エクセル井の頭,0422-49-6167,,
124,30,小川(真),,14271,下川　一郎,924-0812,石川県白山市橋爪町,７０８番地１０,,076-274-0871,,
125,400,仲間,小川（真）,1963385,山下　忠男,665-0013,兵庫県宝塚市宝梅,１－９－１,,0797-73-0998,,
,400,仲間,小川（真）,1962913,山下　佑子,665-0013,兵庫県宝塚市宝梅,１－９－１,,0797-73-0998,,
126,30,谷川,大神,15859,高柳　満,489-0951,愛知県瀬戸市石田町,２２７番地１,,0561-83-6678,,
127,805,鎌田,,13015,木田　健治,046-0012,北海道余市郡余市町山田町,４１８－２４,,0135-22-6663,,
128,805,鎌田,,19390,森　厚子,002-8021,北海道札幌市北区篠路１条,７－１４－２２,,011-773-0203,,
129,805,鎌田,,16024,櫛引　輝紀,003-0835,北海道札幌市白石区北郷五条,５－６－１,,011-875-8511,,
130,805,鎌田,,18593,加藤　順子,002-8072,北海道札幌市北区あいの里,２－７－８－２８,,011-778-5426,,
131,805,小川(貴),鎌田,16959,谷本　壽美男,001-0906,北海道札幌市北区新琴似,６－１３－５－１４,,011-765-2451,,
132,805,小川(貴),鎌田,13767,矢野　義尚,064-0943,北海道札幌市中央区界川,２－４－２６,,011-561-7495,,
133,805,小川(貴),鎌田,17104,熊谷　洋子,061-1374,北海道恵庭市恵み野北,５－４－３,,0123-37-1262,,
134,850,小川(貴),,15867,安藤　雅文,503-0114,岐阜県安八郡安八町森部,４９４番地,,0584-64-3414,,
,850,小川(貴),,25891,安藤　君代,503-0114,岐阜県安八郡安八町森部,４９４番地,,0584-64-3414,,
135,850,小川(貴),,9515,後藤　義和,491-0811,愛知県一宮市千秋町加納馬場,１８４,,0586-76-0755,,
,850,小川(貴),,10060,後藤　みよ子,491-0811,愛知県一宮市千秋町加納馬場,１８４,,0586-76-0755,,
136,850,小川(貴),,8037,井上　正則,444-0905,愛知県岡崎市宇頭町字東側,１７番地,,0564-33-1066,,
,850,小川(貴),,10072,井上　昌子,444-0905,愛知県岡崎市宇頭町字東側,１７番地,,0564-33-1066,,
137,850,小川(貴),,6931,丹羽　栄治,461-0022,愛知県名古屋市東区東大曽根町,２３－８,,052-916-2348,,
,850,小川(貴),,6932,丹羽　まゆみ,461-0022,愛知県名古屋市東区東大曽根町,２３－８,,052-916-2348,,
138,850,小川(貴),,12219,河村　光將,482-0003,愛知県岩倉市曽野町,１０番地,,0587-37-2548,,
,850,小川(貴),,12220,河村　泰子,482-0003,愛知県岩倉市曽野町,１０番地,,0587-37-2548,,
139,850,小川(貴),,8439,伊藤　哲男,458-0801,愛知県名古屋市緑区鳴海町字石堀山,１１,,052-622-9661,,
,850,小川(貴),,7403,伊藤　千代,458-0801,愛知県名古屋市緑区鳴海町字石堀山,１１,,052-622-9661,,
140,850,小川(貴),,14612,末澤　實,481-0043,愛知県北名古屋市沖村蔵前,３番地,,0568-23-6467,,
,850,小川(貴),,13634,末澤　芳枝,481-0043,愛知県北名古屋市沖村蔵前,３番地,,0568-23-6486,,
141,850,小川(貴),,26838,柴田　恭孝,444-2225,愛知県豊田市岩倉町福田,１１番地,,0565-58-0436,,
142,850,小川(貴),,9313,水谷　茂美,466-0054,愛知県名古屋市昭和区円上町,２３－２２,,052-881-4929,,
143,850,宮城,,13060,山本　芳龍,500-8227,岐阜県岐阜市北一色,９丁目１５番２号,,058-247-3847,,
,850,宮城,,13059,山本　恵子,500-8227,岐阜県岐阜市北一色,９丁目１５番２号,,058-247-3847,,
144,850,宮城,,17762,神戸　繁明,475-0912,愛知県半田市白山町,４丁目３５番地の２,,0569-26-4600,,
145,850,宮城,,5600,井戸　眞佐子,509-0203,岐阜県可児市下恵土,１２８７番地１,,0574-62-0430,,
146,850,小川(貴),宮城,1967,千村　晶子,482-0042,愛知県岩倉市中本町,中市場３０－４,,0587-66-6649,,
147,850,仲間,宮城,9617,岡田　純子,448-0003,愛知県刈谷市一ツ木町,３丁目１７番地６,,0566-25-2362,,
148,850,仲間,宮城,10937,藤江　豊,487-0034,愛知県春日井市白山町,３丁目２－８,,0568-51-3867,,
149,850,仲間,宮城,5868,鈴木　啓司,480-0104,愛知県丹羽郡扶桑町大字斎藤字旭,３５４番地,,0587-93-0153,,
150,850,仲間,宮城,17495,馬渕　嘉明,491-0866,愛知県一宮市城崎通,５－１２,,0586-73-5691,,
151,850,加藤,,24488,武藤　治仁,501-0314,岐阜県瑞穂市十八条,７１３番地３,,058-328-2019,,
,850,加藤,,12988,武藤　淑子,501-0314,岐阜県瑞穂市十八条,７１３番地３,,058-328-2019,,
152,850,加藤,,10476,鵜飼　朋子,480-0301,愛知県春日井市内津町,９１番地,,0568-88-7063,,
153,850,加藤,,13632,東畑　玲子,488-0001,愛知県尾張旭市旭台,１丁目７番地１２,,0561-54-3478,,
154,850,加藤,,14427,山中　正一,491-0903,愛知県一宮市八幡,２丁目１番１号,モアグレース八幡１００２号,0586-43-8155,,
155,850,加藤,,3454,大島　純子,460-0011,愛知県名古屋市中区大須,４丁目１－７９,,052-261-7763,,
156,850,加藤,,11531,日下部　友梨,460-0008,愛知県名古屋市中区栄,１－２２－３１,コーポラティブ仲ノ町ハウス３Ｃ,052-202-1424,,
157,850,小川(貴),加藤,7011,浅田　弘枝,477-0037,愛知県東海市高横須賀町葭山,７番地,,0562-32-4147,,
,850,小川(貴),加藤,7018,飯野　桜子,232-0071,神奈川県横浜市南区永田北１丁目,８－３４－５０２,,090-7615-5975,,
158,850,小川(貴),加藤,10914,豊田　猶子,444-0076,愛知県岡崎市井田町字中屋敷,２番地,,0564-21-1832,,
159,850,小川(貴),加藤,12663,丸井　富夫,465-0054,愛知県名古屋市名東区高針台,一丁目１２１１番地の２,,052-704-2270,,
160,850,小川(貴),加藤,7743,時谷　しのぶ,463-0001,愛知県名古屋市守山区大字上志段味東谷,２０８８番地の１８６,,052-768-5503,,
161,850,仲間,,26821,淺井　章,444-0874,愛知県岡崎市竜美南４丁目,３番地２,,0564-54-0475,,
,850,仲間,,8055,淺井　景子,444-0874,愛知県岡崎市竜美南,４－３－２,,0564-54-0475,,
162,850,仲間,,25930,山本　直彦,480-1156,愛知県愛知郡長久手町五合池,１９０７,,0561-63-6472,,
,850,仲間,,18633,山本　万利子,480-1156,愛知県長久手市五合池,１９０７番地,,0561-63-6472,,
163,850,仲間,,16982,永田　章,461-0002,愛知県名古屋市東区代官町,１５番８号,,090-3153-9284,,
,850,仲間,,17068,永田　貴代,461-0002,愛知県名古屋市東区代官町,１５番８号,,090-5854-5771,,
164,302,仲間,,5581,渡辺　千雪,485-0802,愛知県小牧市大草,２１９６－２,,0568-79-2900,,
165,850,仲間,,9498,松山　淑美,491-0115,愛知県一宮市浅井町西海戸字余陸寺,１０３,,0586-78-2046,,
166,850,村部,,25710,海山　淑輝,444-0843,愛知県岡崎市江口,２丁目２番地１８,,0564-53-4888,,
167,850,仲間,村部,13067,田良島　崇,464-0044,愛知県名古屋市千種区自由ケ丘,１丁目６番１２号,,052-763-7343,,
,850,仲間,村部,1911,田良島　啓子,464-0044,愛知県名古屋市千種区自由ケ丘,１丁目６番１２号,,052-763-7343,,
168,340,加藤,,24889,清水　久恵,157-0065,東京都世田谷区上祖師谷,２－１６－１１,,090-1415-6636,,
169,340,加藤,,1434671,笹本　多佳枝,124-0024,東京都葛飾区新小岩,１丁目２４番４－６０３号,ウィルローズ新小岩,080-1202-0476,,
170,340,加藤,,1558150,志波　さつき,123-0852,東京都足立区関原,３丁目２３番２号,六画２０３,090-4596-0452,,
171,340,加藤,,2000017,松澤　豊子,134-0083,東京都江戸川区中葛西,８丁目１５番２３号,,03-3675-3447,,
172,309,佐々木(義),加藤,11083,長澤　重隆,173-0032,東京都板橋区大谷口上町,６４－１０,,03-3955-5346,,
,309,佐々木(義),加藤,5005166,長澤　勝江,173-0032,東京都板橋区大谷口上町,６４番１０号,,03-3955-5346,,
173,302,仲間,加藤,1420665,古川　房枝,167-0042,東京都杉並区西荻北２丁目,１１－１３－４０５,,03-3395-9262,,
174,302,仲間,加藤,25558,落合　春節,185-0022,東京都国分寺市東元町,２－１１－３０,,042-327-8237,,
175,320,小川(貴),,25673,岩渕　秀樹,235-0021,神奈川県横浜市磯子区岡村,６－８－８－３０４,,045-751-6505,,
,320,小川(貴),,16144,岩渕　満子,235-0021,神奈川県横浜市磯子区岡村,６－８－８－３０４,,045-751-6505,,
176,320,小川(貴),,19606,山内　秋男,285-0858,千葉県佐倉市ユーカリが丘,１－１２－３,,043-461-7182,,
,320,小川(貴),,25866,山内　八栄,285-0858,千葉県佐倉市ユーカリが丘,１－１２－３,,043-461-7182,,
177,320,小川(貴),,2501475,加藤　勝義,178-0063,東京都練馬区東大泉,６－３４－３１,,03-3922-2518,,
178,320,小川(貴),,25732,髙野　豊,350-1257,埼玉県日高市大字横手,５１３番地１,,042-982-3116,,
179,320,小川(貴),,8809,田辺　惠美子,193-0833,東京都八王子市めじろ台,４－４５－６,,042-698-3968,,
180,320,小川(貴),,1543589,木内　愛子,343-0813,埼玉県越谷市越ケ谷２丁目,２－２７,,048-965-4129,,
181,320,小川(貴),,1486908,斎藤　ひと実,113-0023,東京都文京区向丘,１－２０－６－１２０１,,03-3813-0232,,
182,302,仲間,小川（真）,8706,和田　泰彦,158-0083,東京都世田谷区奥沢,１－５３－２　２階,,03-3748-0181,,
,302,仲間,小川（真）,9848,和田　協子,158-0083,東京都世田谷区奥沢,１－５３－２,,03-3748-0181,,
183,340,渡邊,,3886,髙橋　巳代治,189-0025,東京都東村山市廻田町,３－１６－３,,042-396-4322,,
,340,渡邊,,3489,髙橋　京子,189-0025,東京都東村山市廻田町,３－１６－３,,042-396-4322,,
184,340,渡邊,,1541636,藤田　善幸,343-0844,埼玉県越谷市大間野町,２－１９１－５,,048-985-0287,,
,340,渡邊,,1570079,藤田　淳子,343-0844,埼玉県越谷市大間野町,２－１９１－５,,048-985-0287,,
185,340,渡邊,,1557082,上村　章三,278-0012,千葉県野田市瀬戸,２２５－２８,,04-7138-1065,,
,340,渡邊,,1556784,上村　素子,278-0012,千葉県野田市瀬戸,２２５－２８,,04-7138-1065,,
186,340,渡邊,,19030,浅井　倶子,283-0803,千葉県東金市日吉台,２－１２－１,,0475-54-1771,,
187,340,渡邊,,2469,堀川　信一,286-0028,千葉県成田市幸町,１０３１,,0476-22-3522,,
188,340,渡邊,,24649,勝山　紀子,260-0044,千葉県千葉市中央区松波,４－２０－３,,043-251-2886,,
189,340,渡邊,,1433969,中井　ひろみ,166-0012,東京都杉並区和田３丁目,４１－２,,03-3315-7705,,
190,340,渡邊,,17201,吹野　等,101-0047,東京都千代田区内神田,２－１３－２,,03-3256-8729,,
191,302,谷川,渡邊,18494,伊藤　静勇,154-0001,東京都世田谷区池尻,２丁目１３番１４号,,03-3422-8718,,
,340,谷川,渡邊,19451,伊藤　淳子,154-0001,東京都世田谷区池尻,２丁目１３番１４号,,03-3422-8718,,
192,302,谷川,渡邊,25833,平井　美智子,260-0843,千葉県千葉市中央区末広,３－１－４,,043-265-3016,,
193,302,谷川,渡邊,1437345,下野　明子,134-0087,東京都江戸川区清新町１丁目,４－１５－９１２,,03-3688-2495,,
194,302,谷川,渡邊,1570126,高橋　康一,333-0816,埼玉県川口市差間１丁目,６－２６,,048-298-3485,,
195,309,佐々木(義),渡邊,8759,前田　悦子,157-0076,東京都世田谷区岡本,１－７－１７,テラス岡本Ａ６０８,03-5716-4734,,
196,340,深谷,,5009666,小林　勤,183-0022,東京都府中市宮西町,５－９－５,,042-366-3520,,
197,309,佐々木(義),深谷,1438649,篠田　源治,277-0812,千葉県柏市花野井,８３１番地の２,,04-7131-1476,,
,309,佐々木(義),深谷,1456672,篠田　弘子,277-0812,千葉県柏市花野井,８３１番地の２,,04-7131-1476,,
198,302,谷川,深谷,18550,伊藤　博,252-0331,神奈川県相模原市南区大野台,６丁目４番１－１００８号,,042-757-8597,,
,340,谷川,深谷,18563,伊藤　美晴,252-0331,神奈川県相模原市南区大野台,６丁目４番１－１００８号,,042-757-8597,,
199,302,谷川,深谷,19084,蛭間　延子,166-0013,東京都杉並区堀ノ内,１丁目２番１号,コーポ蛭間２０１,03-3312-8025,,
200,309,佐々木(義),深谷,16834,篠崎　小夜子,272-0836,千葉県市川市北国分,１丁目９番１号,,047-372-6422,,
201,302,仲間,深谷,26834,梅澤　眞一,343-0807,埼玉県越谷市赤山町,２丁目１番地１,ライフピア越谷ストーリア５０１,048-967-1755,,
,302,仲間,深谷,26098,梅澤　綠,343-0807,埼玉県越谷市赤山町,２丁目１番地１,ライフピア越谷ストーリア５０１,048-967-1755,,
202,302,仲間,,1967306,河内　誠,665-0854,兵庫県宝塚市売布山手町,８－７,,0797-84-2744,,
,302,仲間,,18484,河内　清美,665-0854,兵庫県宝塚市売布山手町,８－７,,0797-84-2744,,
203,302,仲間,,1014306,三好　早知子,553-0003,大阪市福島区福島８丁目,１５－６,,06-6452-3658,,
204,320,小川(貴),,1988379,傳　秋光,651-2274,兵庫県神戸市西区竹の台５丁目,５－１１,,078-991-7132,,
,320,小川(貴),,1988285,傳　香苗,651-2274,兵庫県神戸市西区竹の台５丁目,５－１１,,078-991-7132,,
205,400,小川(貴),,1036524,吉住　准一,665-0804,兵庫県宝塚市雲雀丘山手,２丁目６－１５,,072-757-7343,,
206,400,宮城,,1977852,小林　真智子,665-0022,兵庫県宝塚市野上１丁目,２－１,,0797-72-3834,,
207,400,仲間,宮城,25135,廣野　慂,572-0081,大阪府寝屋川市東香里園町,８－２１,,072-832-5563,,
,400,仲間,宮城,25846,廣野　佳枝,572-0081,大阪府寝屋川市東香里園町,８－２１,,072-832-5563,,
208,400,仲間,宮城,1963582,土井　直治,658-0065,神戸市東灘区御影山手１丁目,５－１－４０１,,078-843-5805,,
209,400,小川(貴),宮城,1932526,安好　貴美代,657-0011,神戸市灘区鶴甲４丁目,７－２１－１０６,,078-811-3399,,
210,400,加藤,,1940097,豊田　洋子,665-0022,兵庫県宝塚市野上４丁目,８－５０,,0797-71-8261,,
211,340,加藤,,1882225,石上　勝久,666-0257,兵庫県川辺郡猪名川町白金,１－１０３－１３,,072-766-0267,,
212,400,加藤,,1963565,池永　公美子,665-0005,兵庫県宝塚市武庫山,２－４－９９,,0797-71-9228,,
213,400,加藤,,26906,平木　誠一,558-0052,大阪府大阪市住吉区帝塚山西,１－６－１２,,06-6673-2221,,
214,400,仲間,加藤,695,中根　芳一,562-0031,大阪府箕面市小野原東,４丁目１５番３号,,072-726-7550,,
,400,仲間,加藤,696,中根　みさ子,562-0031,大阪府箕面市小野原東,４丁目１５番３号,,072-726-7550,,
215,400,仲間,加藤,1974144,岩佐　滿男,651-2104,兵庫県神戸市西区伊川谷町長坂,１８３－１,,078-976-1021,,
216,400,小川(貴),加藤,2696,山﨑　暢子,545-0023,大阪府大阪市阿倍野区王子町,１－６－４,,06-6623-0231,,
217,400,村部,,11719,丹下　一一,665-0022,兵庫県宝塚市野上,４丁目１８－１７,,0797-72-1710,,
,400,村部,,12095,丹下　久仁子,665-0022,兵庫県宝塚市野上,４丁目１８－１７,,0797-72-1710,,
218,400,村部,,27074,田村　博美,665-0074,兵庫県宝塚市仁川台,１６１－５,,0798-53-3906,,
,400,村部,,1963062,田村　潤子,665-0074,兵庫県宝塚市仁川台,１６１－５,,0798-53-3906,,
219,400,村部,,1940193,丸本　妙子,558-0045,大阪市住吉区住吉２丁目,１３－１６,,06-6674-1632,,
220,400,仲間,村部,19071,片山　勝義,665-0853,兵庫県宝塚市売布ガ丘,１２－１２,,0797-87-7171,,
,400,仲間,村部,19332,片山　育子,665-0853,兵庫県宝塚市売布ガ丘,１２－１２,,0797-87-7171,,
221,400,仲間,村部,26298,庄司　直子,662-0833,兵庫県西宮市北昭和町,２－３２－２０１,,0798-63-4161,,
222,400,仲間,村部,4226,松本　由美子,599-8254,大阪府堺市中区伏尾,３４２－４,,072-279-2831,,
223,400,小川(貴),村部,7710,中岡　眞喜子,671-4241,兵庫県宍粟市波賀町安賀,３４,,0790-75-3329,,
224,340,渡邊,,6880,阪上　修一,659-0004,兵庫県芦屋市奥池南町,５２－９,,0797-32-4364,,
225,340,渡邊,,3017,藤本　彬,675-0043,兵庫県加古川市西神吉町中西,１０３－１,,079-431-6641,,
226,340,渡邊,,17288,橋本　眞琴,556-0017,大阪府大阪市浪速区湊町,２丁目２番５－２０８号,,090-3970-6003,,
227,320,小川(貴),渡邊,16595,佐伯　廣子,543-0076,大阪府大阪市天王寺区下寺町,２－２－２３,,06-6779-7825,,
228,805,小川(貴),,17217,田端　敏幸,061-1372,北海道恵庭市恵み野南,４－１２－３,,0123-37-0283,,
,805,小川(貴),,18399,田端　法子,061-1372,北海道恵庭市恵み野南,４－１２－３,,0123-37-0283,,
229,320,小川(貴),,17872,田中　純子,004-0871,北海道札幌市清田区平岡１条,２丁目３－１０,,011-883-5924,,
230,320,小川(貴),,19437,下村　朔郎,070-8018,北海道旭川市神居８条,１５－２－４,,0166-61-1342,,
231,320,小川(貴),,25712,熊谷　良夫,078-8802,北海道旭川市緑が丘東二条,３－５－１０,,0166-65-3940,,
232,805,宮城,,19442,高橋　さつき,061-1123,北海道北広島市朝日町,２丁目２番地８,,011-373-0588,,
233,805,宮城,,13650,中田　多鶴子,078-8348,北海道旭川市東光八条,６－４－２,,0166-31-5118,,
234,805,小川(貴),宮城,17014,鈴木　敦行,061-1434,北海道恵庭市柏陽町,１丁目２３番７,,0123-33-8016,,
,805,小川(貴),宮城,25566,鈴木　ひな子,061-1434,北海道恵庭市柏陽町,１丁目２３番７,,0123-33-8016,,
235,805,小川(貴),宮城,17632,高柳　典子,053-0042,北海道苫小牧市三光町,４－１５－１３,,0144-34-8334,,
236,340,谷川,深谷,26448,髙田　寛之,061-1123,北海道北広島市朝日町,４－２－２,,011-373-7414,,
,302,谷川,深谷,16239,高田　栄,061-1123,北海道北広島市朝日町,４－２－２,,011-373-7414,,
237,302,仲間,,14972,橘　秀樹,799-3114,愛媛県伊予市灘町,１３６番地３,,089-982-0023,,
,302,仲間,,25578,橘　淑子,799-3114,愛媛県伊予市灘町,１３６番地３,,089-982-0023,,
238,850,仲間,,7171,石井　眞夫,514-0821,三重県津市垂水,１１１２番地,,059-246-6607,,
239,400,仲間,,25740,杉浦　和男,515-0802,三重県松阪市猟師町,８６４－６,,0598-51-3394,,
240,850,仲間,,9789,坂野　和子,510-1233,三重県三重郡菰野町菰野,２２６８－５,,059-393-1627,,
241,400,加藤,,1846,森田　昌宏,636-0813,奈良県生駒郡三郷町信貴ケ丘,１丁目４－９,,0745-32-6969,,
242,400,瀬能,,25040,竹村　英明,535-0012,大阪府大阪市旭区千林,２－１５－４,,06-6951-3548,,
243,400,瀬能,,1029909,松本　峰男,563-0047,大阪府池田市室町,１－１３－６１０,,072-736-8537,,
244,400,瀬能,,13353,清水　和彦,651-1303,兵庫県神戸市北区藤原台南町,５丁目１４－２３,,078-982-8116,,
245,400,瀬能,,1874648,西村　文夫,675-1114,兵庫県加古郡稲美町国安,１丁目５３番地,,079-492-4969,,
246,400,瀬能,,8476,室　幸枝,650-0044,兵庫県神戸市中央区東川崎町,１－４－３－１５０４,,078-360-2341,,
247,400,仲間,瀬能,1963034,大久保　和廣,669-1131,兵庫県西宮市清瀬台,１２－１２,,0797-61-0844,,
,400,仲間,瀬能,1988180,大久保　久美子,669-1131,兵庫県西宮市清瀬台,１２－１２,,0797-61-0844,,
248,400,谷川,瀬能,25008,髙橋　幹雄,551-0001,大阪府大阪市大正区三軒家西,１丁目９－２１,,06-6552-9779,,
,400,谷川,瀬能,25201,髙橋　万智子,551-0001,大阪府大阪市大正区三軒家西,１丁目９－２１,,06-6552-9779,,
249,400,仲間,瀬能,1013621,大野　和美,530-0022,大阪市北区浪花町,２－２５－１１０３,,06-6371-7660,,
250,400,仲間,瀬能,1977642,木嶋　英子,662-0822,兵庫県西宮市松籟荘,８－２１,,0798-53-3483,,
251,400,谷川,瀬能,862,脇本　美子,559-0033,大阪府大阪市住之江区南港中,３－４－１１－１４０４,,06-6614-2524,,
252,400,谷川,瀬能,17085,浅田　喜代子,572-0850,大阪府寝屋川市打上高塚町,５－４,,072-821-8163,,
253,400,安樂,,1964009,田原　祐子,665-0021,兵庫県宝塚市中州,１－３－２－１０２,,0797-74-4834,,
254,400,安樂,,24841,松任　千津子,542-0067,大阪府大阪市中央区松屋町,３－２３－５０５,,06-6191-7503,,
255,400,安樂,,7783,西根　扶美,662-0842,兵庫県西宮市芦原町,１０－５－９０３,,0798-64-8690,,
256,400,安樂,,14208,石原　伊津子,658-0001,兵庫県神戸市東灘区森北町,７丁目１８－３,,078-411-7165,,
257,400,仲間,安樂,3312,井上　清子,578-0937,大阪府東大阪市花園本町,２丁目１１番２９－２１１号,,072-964-3781,,
258,450,佐々木(義),,26871,内川　克己,812-0885,福岡県福岡市博多区相生町,２丁目２番１号１０８号,,090-2717-8515,,
,450,佐々木(義),,15921,内川　和枝,812-0885,福岡県福岡市博多区相生町,２丁目２番１号１０８号,,092-572-3281,,
259,450,佐々木(義),,18649,青木　宏樹,841-0062,佐賀県鳥栖市幸津町,１９３８－３,,0942-85-3747,,
,450,佐々木(義),,25977,青木　美和,841-0062,佐賀県鳥栖市幸津町,１９３８－３,,0942-85-3747,,
260,450,佐々木(義),,16465,鬼木　美枝子,819-0161,福岡県福岡市西区今宿東,３丁目３２番２３号,,092-807-8818,,
,450,佐々木(義),,16423,鬼木　美歩,819-0002,福岡県福岡市西区姪の浜,４－１４－６,,092-883-9773,,
261,450,佐々木(義),,18283,三角　照子,810-0055,福岡県福岡市中央区黒門,４－３１,,092-715-6266,,
262,450,佐々木(義),,18521,松尾　桂子,818-0005,福岡県筑紫野市大字原,５５５－１８,,092-928-7261,,
263,450,佐々木(義),,16286,菅谷　理恵子,814-0142,福岡県福岡市城南区片江,１－１－２３,,092-866-3833,,
264,450,佐々木(義),,1029283,羽方　智子,839-0862,福岡県久留米市野中町,１１７５－１,ファミールハイツ１４１２,0942-31-0707,,
265,450,佐々木(義),,18035,中島　キミ子,819-1123,福岡県糸島市神在,３９２番地２１,,092-324-0606,,
266,450,佐々木(義),,14471,一本　まり子,819-0373,福岡県福岡市西区周船寺,３－７－２２,サーパス周船寺３０２,092-807-3014,,
267,450,佐々木(義),,16081,若林　律子,813-0014,福岡県福岡市東区香椎台,２－３－９,,092-661-9651,,